<define-tag pagetitle>DSA-4685-1 apt</define-tag>
<define-tag report_date>2020-5-14</define-tag>
<define-tag secrefs>CVE-2020-3810</define-tag>
<define-tag packages>apt</define-tag>
<define-tag isvulnerable>yes</define-tag>
<define-tag fixed>yes</define-tag>
<define-tag fixed-section>no</define-tag>

#use wml::debian::security



</dl>
