<define-tag pagetitle>DSA-4663-1 python-reportlab</define-tag>
<define-tag report_date>2020-4-25</define-tag>
<define-tag secrefs>CVE-2019-17626 Bug#942763</define-tag>
<define-tag packages>python-reportlab</define-tag>
<define-tag isvulnerable>yes</define-tag>
<define-tag fixed>yes</define-tag>
<define-tag fixed-section>no</define-tag>

#use wml::debian::security



</dl>
