<define-tag pagetitle>DLA-1219-1 enigmail</define-tag>
<define-tag report_date>2017-12-23</define-tag>
<define-tag secrefs>CVE-2017-17843 CVE-2017-17844 CVE-2017-17845 CVE-2017-17846 CVE-2017-17847 CVE-2017-17848</define-tag>
<define-tag packages>enigmail</define-tag>
<define-tag isvulnerable>yes</define-tag>
<define-tag fixed>yes</define-tag>
<define-tag fixed-section>no</define-tag>

#use wml::debian::security

