<define-tag pagetitle>DLA-810-1 libarchive</define-tag>
<define-tag report_date>2017-1-31</define-tag>
<define-tag secrefs>CVE-2017-5601 Bug##853278</define-tag>
<define-tag packages>libarchive</define-tag>
<define-tag isvulnerable>yes</define-tag>
<define-tag fixed>yes</define-tag>
<define-tag fixed-section>no</define-tag>

#use wml::debian::security

