<define-tag pagetitle>DLA-2393-1 snmptt</define-tag>
<define-tag report_date>2020-10-02</define-tag>
<define-tag secrefs>CVE-2020-24361</define-tag>
<define-tag packages>snmptt</define-tag>
<define-tag isvulnerable>yes</define-tag>
<define-tag fixed>yes</define-tag>
<define-tag fixed-section>no</define-tag>

#use wml::debian::security

