<define-tag pagetitle>DLA-1610-1 sleuthkit</define-tag>
<define-tag report_date>2018-12-17</define-tag>
<define-tag secrefs>CVE-2018-19497 Bug#914796</define-tag>
<define-tag packages>sleuthkit</define-tag>
<define-tag isvulnerable>yes</define-tag>
<define-tag fixed>yes</define-tag>
<define-tag fixed-section>no</define-tag>

#use wml::debian::security

