<define-tag pagetitle>DSA-4562-1 chromium</define-tag>
<define-tag report_date>2019-11-10</define-tag>
<define-tag secrefs>CVE-2019-5869 CVE-2019-5870 CVE-2019-5871 CVE-2019-5872 CVE-2019-5874 CVE-2019-5875 CVE-2019-5876 CVE-2019-5877 CVE-2019-5878 CVE-2019-5879 CVE-2019-5880 CVE-2019-13659 CVE-2019-13660 CVE-2019-13661 CVE-2019-13662 CVE-2019-13663 CVE-2019-13664 CVE-2019-13665 CVE-2019-13666 CVE-2019-13667 CVE-2019-13668 CVE-2019-13669 CVE-2019-13670 CVE-2019-13671 CVE-2019-13673 CVE-2019-13674 CVE-2019-13675 CVE-2019-13676 CVE-2019-13677 CVE-2019-13678 CVE-2019-13679 CVE-2019-13680 CVE-2019-13681 CVE-2019-13682 CVE-2019-13683 CVE-2019-13685 CVE-2019-13686 CVE-2019-13687 CVE-2019-13688 CVE-2019-13691 CVE-2019-13692 CVE-2019-13693 CVE-2019-13694 CVE-2019-13695 CVE-2019-13696 CVE-2019-13697 CVE-2019-13699 CVE-2019-13700 CVE-2019-13701 CVE-2019-13702 CVE-2019-13703 CVE-2019-13704 CVE-2019-13705 CVE-2019-13706 CVE-2019-13707 CVE-2019-13708 CVE-2019-13709 CVE-2019-13710 CVE-2019-13711 CVE-2019-13713 CVE-2019-13714 CVE-2019-13715 CVE-2019-13716 CVE-2019-13717 CVE-2019-13718 CVE-2019-13719 CVE-2019-13720 CVE-2019-13721</define-tag>
<define-tag packages>chromium</define-tag>
<define-tag isvulnerable>yes</define-tag>
<define-tag fixed>yes</define-tag>
<define-tag fixed-section>no</define-tag>

#use wml::debian::security



</dl>
