<define-tag pagetitle>DSA-4556-1 qtbase-opensource-src</define-tag>
<define-tag report_date>2019-10-31</define-tag>
<define-tag secrefs>CVE-2019-18281</define-tag>
<define-tag packages>qtbase-opensource-src</define-tag>
<define-tag isvulnerable>yes</define-tag>
<define-tag fixed>yes</define-tag>
<define-tag fixed-section>no</define-tag>

#use wml::debian::security



</dl>
