<define-tag pagetitle>DSA-4527-1 php7.3</define-tag>
<define-tag report_date>2019-9-19</define-tag>
<define-tag secrefs>CVE-2019-11036 CVE-2019-11039 CVE-2019-11040 CVE-2019-11041 CVE-2019-11042</define-tag>
<define-tag packages>php7.3</define-tag>
<define-tag isvulnerable>yes</define-tag>
<define-tag fixed>yes</define-tag>
<define-tag fixed-section>no</define-tag>

#use wml::debian::security



</dl>
