<define-tag pagetitle>DLA-1876-1 gosa</define-tag>
<define-tag report_date>2019-08-11</define-tag>
<define-tag secrefs>CVE-2019-11187</define-tag>
<define-tag packages>gosa</define-tag>
<define-tag isvulnerable>yes</define-tag>
<define-tag fixed>yes</define-tag>
<define-tag fixed-section>no</define-tag>

#use wml::debian::security

